<?xml version="1.0" encoding="UTF-8" standalone="no"?>
<svg width="54px" height="40px" viewBox="0 0 54 40" version="1.1" xmlns="http://www.w3.org/2000/svg" xmlns:xlink="http://www.w3.org/1999/xlink">
    <!-- Generator: sketchtool 3.8.1 (29687) - http://www.bohemiancoding.com/sketch -->
    <title>6658B573-F68B-443E-B806-2ACB65C60F6A</title>
    <desc>Created with sketchtool.</desc>
    <defs>
        <polyline id="path-1" points="3.41060513e-13 0.0796539684 37.3402224 0.0796539684 37.3402224 43.4605731 3.41060513e-13 43.4605731"></polyline>
    </defs>
    <g id="Page-1" stroke="none" stroke-width="1" fill="none" fill-rule="evenodd">
        <g id="Main-page-—-first-step" transform="translate(-1233.000000, -661.000000)">
            <g id="2-block" transform="translate(0.000000, 600.000000)">
                <g id="4-icon" transform="translate(1260.016939, 81.182570) rotate(55.000000) translate(-1260.016939, -81.182570) translate(1241.016939, 59.182570)">
                    <mask id="mask-2" fill="white">
                        <use xlink:href="#path-1"></use>
                    </mask>
                    <g id="Clip-2"></g>
                    <path d="M33.3388765,5.76010762 C32.9557925,6.4574717 32.502632,7.14785359 31.9513647,7.71426597 C29.2966741,10.4410251 25.9968563,12.0811274 22.4382514,13.2373211 C21.2574294,13.6209141 20.0386671,13.8858098 18.7934314,14.2165377 C18.7519519,15.4646398 18.3506055,16.5910524 17.2959209,17.4009865 C15.6871376,18.6364067 13.4393146,18.4098418 12.1350449,16.8817395 C10.855125,15.382136 10.9532319,13.1099317 12.3581567,11.7147761 C13.760958,10.3214729 16.0260524,10.2281395 17.4752881,11.5962214 C17.9618587,12.055621 18.3692925,12.1191732 18.9720907,11.977392 C21.1553586,11.4637022 23.2531191,10.7278649 25.2268657,9.7570554 C24.0270736,8.50197105 22.8439864,7.26455591 21.6773213,6.04409752 C21.7081832,5.95347154 21.7115808,5.88706949 21.7372047,5.87666745 C24.8401009,4.61844823 28.0024558,3.65120112 31.4094408,3.98150147 C31.8718032,4.02624449 32.3416687,4.14152188 32.7745849,4.31108936 C33.5387711,4.61032609 33.7341355,5.04065701 33.3388765,5.76010762 M33.5794013,0.556380832 C31.4070342,-0.115191893 29.1958774,0.0243094222 26.9933562,0.356177208 C24.2051666,0.776248584 21.5571297,1.67410128 18.9855397,2.82288534 C18.7778589,2.91564873 18.4178505,2.92163346 18.2469774,2.79980137 C15.7524007,1.02091024 13.3433312,1.18150062 11.1698316,3.30964376 C8.17679251,6.24045382 5.19649458,9.18465828 2.1900065,12.1013615 C0.714155944,13.533138 -0.00529465811,15.2422072 8.49410395e-05,17.3079381 C0.0179225593,24.1707188 0.000226509438,31.0334996 0.00928688695,37.8961378 C0.0138170757,41.3175536 2.14328893,43.4462667 5.52861404,43.4494016 C12.0634113,43.4553863 18.5982086,43.4660734 25.1330059,43.4570963 C25.5952267,43.4565263 26.0748604,43.3659003 26.5162707,43.2229791 C28.7342228,42.5049535 30.0375015,40.55222 30.0399082,37.9569826 C30.0461372,31.5216829 30.0597277,25.0862408 30.028158,18.6510836 C30.0213627,17.2463809 29.8384563,15.8425331 29.7256263,14.2862171 C30.1381566,14.0260236 30.7653046,13.656395 31.3658378,13.2471532 C33.4749238,11.8103894 35.4005371,10.1749894 36.6086818,7.86174694 C38.2808878,4.66019888 37.0093204,1.61681882 33.5794013,0.556380832" id="Fill-1" fill="#FEFEFE" mask="url(#mask-2)"></path>
                </g>
            </g>
        </g>
    </g>
</svg>