<?xml version="1.0" encoding="UTF-8" standalone="no"?>
<svg width="119px" height="40px" viewBox="0 0 119 40" version="1.1" xmlns="http://www.w3.org/2000/svg" xmlns:xlink="http://www.w3.org/1999/xlink">
    <!-- Generator: sketchtool 3.8.1 (29687) - http://www.bohemiancoding.com/sketch -->
    <title>0DC16FBC-5A84-4AA7-AC50-AEF661E7ED92</title>
    <desc>Created with sketchtool.</desc>
    <defs>
        <polygon id="path-1" points="0 0.240784314 118.638303 0.240784314 118.638303 40 0 40"></polygon>
        <polygon id="path-3" points="0 0.240784314 118.638303 0.240784314 118.638303 40 0 40"></polygon>
        <polyline id="path-5" points="0 0.240784314 118.638303 0.240784314 118.638303 40 0 40"></polyline>
        <polyline id="path-7" points="0 0.240784314 118.638303 0.240784314 118.638303 40 0 40"></polyline>
    </defs>
    <g id="Page-1" stroke="none" stroke-width="1" fill="none" fill-rule="evenodd">
        <g id="Elements-UI" transform="translate(-1088.000000, -555.000000)">
            <g id="Copyright" transform="translate(1088.000000, 555.000000)">
                <g id="logo">
                    <polygon id="Fill-1" fill="#1D1D1B" points="7.92328618 16.9832941 3.60014145 22.333098 3.60014145 16.9832941 0.000391447368 16.9832941 0.000391447368 28.9417255 3.60014145 28.9417255 3.60014145 23.3425098 8.16441776 28.9417255 12.5564572 28.9417255 7.38935197 22.5832941 11.8330625 16.9832941"></polygon>
                    <g id="Group-64">
                        <path d="M21.9302908,22.9541176 C21.9302908,22.5054902 21.8645276,22.0952941 21.7322184,21.7243137 C21.5999092,21.3533333 21.4002711,21.0317647 21.1333039,20.7580392 C20.8663368,20.485098 20.5406526,20.272549 20.1562513,20.1196078 C19.77185,19.967451 19.3263829,19.8913725 18.8214158,19.8913725 C17.8568895,19.8913725 17.0990474,20.1729412 16.5478895,20.7368627 C15.9967316,21.3007843 15.7211526,22.0396078 15.7211526,22.9541176 C15.7211526,23.8686275 15.9975145,24.6090196 16.5518039,25.1760784 C17.1060934,25.7423529 17.8623697,26.0254902 18.8214158,26.0254902 C19.4813961,26.0254902 20.0442974,25.8945098 20.5093368,25.6333333 C20.9743763,25.3713725 21.3274618,25.0090196 21.5685934,24.5462745 C21.809725,24.0827451 21.9302908,23.552549 21.9302908,22.9541176 M25.5989355,22.9541176 C25.5989355,24.0701961 25.3421461,25.0968627 24.8285671,26.0341176 C24.3142053,26.9721569 23.5493171,27.7164706 22.5331197,28.2686275 C21.5169224,28.8207843 20.2799487,29.0968627 18.8214158,29.0968627 C17.3456592,29.0968627 16.0969421,28.8098039 15.0752645,28.2341176 C14.0528039,27.6592157 13.2933961,26.9031373 12.7970408,25.965098 C12.3006855,25.0278431 12.051725,24.0239216 12.051725,22.9541176 C12.051725,21.8788235 12.2991197,20.8733333 12.7923434,19.9384314 C13.28635,19.0043137 14.0457579,18.2505882 15.0705671,17.6780392 C16.0953763,17.1054902 17.3456592,16.82 18.8214158,16.82 C19.9237316,16.82 20.9070474,16.9839216 21.7705803,17.3117647 C22.6348961,17.6396078 23.3457645,18.0835294 23.9024026,18.6443137 C24.4590408,19.205098 24.8818039,19.8584314 25.1683434,20.6027451 C25.4556658,21.3478431 25.5989355,22.1313725 25.5989355,22.9541176" id="Fill-2" fill="#1D1D1B"></path>
                        <polygon id="Fill-4" fill="#1D1D1B" points="36.2477914 28.9418039 27.1787388 28.9418039 27.1787388 16.9833725 30.7792717 16.9833725 30.7792717 26.0774902 36.2477914 26.0774902"></polygon>
                        <path d="M48.0475809,28.044549 C47.5535743,28.3033725 47.0486072,28.5104314 46.5318967,28.6657255 C46.0151862,28.8210196 45.4937783,28.9316078 44.9684559,28.9982745 C44.4431336,29.0641569 43.8990217,29.097098 43.3369033,29.097098 C42.2972191,29.097098 41.3655743,28.9535686 40.5419691,28.6657255 C39.7183638,28.3778824 39.0035809,27.9543529 38.3976204,27.3927843 C37.7916599,26.832 37.3383638,26.1763137 37.0369493,25.4257255 C36.7355349,24.6751373 36.5844362,23.8516078 36.5844362,22.9543529 C36.5844362,21.924549 36.7629362,21.0225882 37.1183704,20.2492549 C37.4745875,19.4759216 37.9725086,18.8327843 38.6129164,18.3206275 C39.2533243,17.8092549 39.9821993,17.4312157 40.8003243,17.1865098 C41.6184493,16.9418039 42.4811993,16.819451 43.3885743,16.819451 C44.7429822,16.819451 46.2790217,17.1214118 47.9959099,17.7253333 L47.9959099,20.9010196 C47.4048243,20.5323922 46.820002,20.2265098 46.2430086,19.9818039 C45.6660151,19.737098 44.9872454,19.6155294 44.2066993,19.6155294 C43.5114888,19.6155294 42.863252,19.7535686 42.260423,20.0296471 C41.6575941,20.3057255 41.1721993,20.699451 40.8050217,21.2116078 C40.4370612,21.7229804 40.2538638,22.3214118 40.2538638,23.0061176 C40.2538638,23.6100392 40.4143572,24.1637647 40.736127,24.6665098 C41.0571138,25.1700392 41.5033638,25.5700392 42.074877,25.8657255 C42.6463901,26.1621961 43.2907125,26.3104314 44.008627,26.3104314 C44.5879691,26.3104314 45.1367783,26.2398431 45.6534888,26.0986667 C46.1701993,25.9582745 46.6047059,25.8014118 46.9577914,25.6288627 C47.310877,25.4563137 47.6741401,25.2523922 48.0475809,25.0163137 L48.0475809,28.044549 Z" id="Fill-6" fill="#1D1D1B"></path>
                        <polygon id="Fill-8" fill="#1D1D1B" points="62.2843651 28.9418039 58.693227 28.9418039 58.693227 24.2743529 53.2755954 24.2743529 53.2755954 28.9418039 49.6758454 28.9418039 49.6758454 16.9833725 53.2755954 16.9833725 53.2755954 21.3755294 58.693227 21.3755294 58.693227 16.9833725 62.2843651 16.9833725"></polygon>
                        <path d="M71.9845875,24.4381176 L70.2363836,20.0726275 L68.4709559,24.4381176 L71.9845875,24.4381176 Z M77.4703309,28.9416471 L73.7844625,28.9416471 L72.8113243,26.5173333 L67.6269954,26.5173333 L66.6366336,28.9416471 L62.9499822,28.9416471 L68.2298243,16.984 L72.2084954,16.984 L77.4703309,28.9416471 Z" id="Fill-10" fill="#1D1D1B"></path>
                        <polygon id="Fill-12" fill="#1D1D1B" points="91.1439007 28.9418039 87.9402954 28.9418039 81.747598 22.2814118 81.747598 28.9418039 78.1822954 28.9418039 78.1822954 16.9833725 81.3772888 16.9833725 87.5527625 23.6100392 87.5527625 16.9833725 91.1439007 16.9833725"></polygon>
                        <path d="M101.930859,22.9541176 C101.930859,22.5054902 101.865096,22.0952941 101.732787,21.7243137 C101.600478,21.3533333 101.400839,21.0317647 101.133872,20.7580392 C100.866905,20.485098 100.541221,20.272549 100.15682,20.1196078 C99.7724184,19.967451 99.3269513,19.8913725 98.8219842,19.8913725 C97.8574579,19.8913725 97.0996158,20.1729412 96.5484579,20.7368627 C95.9973,21.3007843 95.7217211,22.0396078 95.7217211,22.9541176 C95.7217211,23.8686275 95.9988658,24.6090196 96.5523724,25.1760784 C97.1066618,25.7423529 97.8629382,26.0254902 98.8219842,26.0254902 C99.4819645,26.0254902 100.044866,25.8945098 100.509905,25.6333333 C100.974945,25.3713725 101.32803,25.0090196 101.569162,24.5462745 C101.810293,24.0827451 101.930859,23.552549 101.930859,22.9541176 M105.599504,22.9541176 C105.599504,24.0701961 105.342714,25.0968627 104.829136,26.0341176 C104.314774,26.9721569 103.549886,27.7164706 102.533688,28.2686275 C101.517491,28.8207843 100.280517,29.0968627 98.8219842,29.0968627 C97.3462276,29.0968627 96.0975105,28.8098039 95.0758329,28.2341176 C94.0533724,27.6592157 93.2939645,26.9031373 92.7976092,25.965098 C92.3012539,25.0278431 92.0522934,24.0239216 92.0522934,22.9541176 C92.0522934,21.8788235 92.2996882,20.8733333 92.7929118,19.9384314 C93.2869184,19.0043137 94.0463263,18.2505882 95.0711355,17.6780392 C96.0959447,17.1054902 97.3462276,16.82 98.8219842,16.82 C99.9243,16.82 100.907616,16.9839216 101.771149,17.3117647 C102.635464,17.6396078 103.346333,18.0835294 103.902971,18.6443137 C104.459609,19.205098 104.882372,19.8584314 105.168912,20.6027451 C105.456234,21.3478431 105.599504,22.1313725 105.599504,22.9541176" id="Fill-14" fill="#1D1D1B"></path>
                        <g id="Group-18">
                            <mask id="mask-2" fill="white">
                                <use xlink:href="#path-1"></use>
                            </mask>
                            <g id="Clip-17"></g>
                            <polygon id="Fill-16" fill="#1D1D1B" mask="url(#mask-2)" points="118.638538 16.9836078 113.256136 29.0973333 110.879268 29.0973333 105.599426 16.9836078 109.345577 16.9836078 112.076314 23.8855686 114.883774 16.9836078"></polygon>
                        </g>
                        <g id="Group-21">
                            <mask id="mask-4" fill="white">
                                <use xlink:href="#path-3"></use>
                            </mask>
                            <g id="Clip-20"></g>
                            <polygon id="Fill-19" fill="#1D1D1B" mask="url(#mask-4)" points="12.5566138 12.3627451 8.16457434 12.3627451 3.59951513 6.76352941 3.59951513 12.3627451 -0.000234868421 12.3627451 -0.000234868421 0.404313725 3.59951513 0.404313725 3.59951513 5.75411765 7.92344276 0.404313725 11.8332191 0.404313725 7.38950855 6.00431373"></polygon>
                        </g>
                        <path d="M21.9302908,6.37498039 C21.9302908,5.92635294 21.8645276,5.51615686 21.7322184,5.14517647 C21.5999092,4.77419608 21.4002711,4.45262745 21.1333039,4.17890196 C20.8663368,3.90596078 20.5406526,3.69341176 20.1562513,3.54047059 C19.77185,3.38831373 19.3263829,3.31223529 18.8214158,3.31223529 C17.8568895,3.31223529 17.0990474,3.59380392 16.5478895,4.15772549 C15.9967316,4.72164706 15.7211526,5.46047059 15.7211526,6.37498039 C15.7211526,7.2894902 15.9975145,8.02988235 16.5518039,8.59694118 C17.1060934,9.16321569 17.8623697,9.44635294 18.8214158,9.44635294 C19.4813961,9.44635294 20.0442974,9.31537255 20.5093368,9.05419608 C20.9743763,8.79223529 21.3274618,8.42988235 21.5685934,7.96713725 C21.809725,7.50360784 21.9302908,6.97341176 21.9302908,6.37498039 M25.5989355,6.37498039 C25.5989355,7.49105882 25.3421461,8.51772549 24.8285671,9.45498039 C24.3142053,10.3930196 23.5493171,11.1373333 22.5331197,11.6894902 C21.5169224,12.2416471 20.2799487,12.5177255 18.8214158,12.5177255 C17.3456592,12.5177255 16.0969421,12.2306667 15.0752645,11.6549804 C14.0528039,11.0800784 13.2933961,10.324 12.7970408,9.38596078 C12.3006855,8.44870588 12.051725,7.44478431 12.051725,6.37498039 C12.051725,5.29968627 12.2991197,4.29419608 12.7923434,3.35929412 C13.28635,2.42517647 14.0457579,1.67145098 15.0705671,1.09890196 C16.0953763,0.527137255 17.3456592,0.240862745 18.8214158,0.240862745 C19.9237316,0.240862745 20.9070474,0.404784314 21.7705803,0.732627451 C22.6348961,1.06047059 23.3457645,1.50439216 23.9024026,2.06517647 C24.4590408,2.62596078 24.8818039,3.27929412 25.1683434,4.02360784 C25.4556658,4.76870588 25.5989355,5.55223529 25.5989355,6.37498039" id="Fill-22" fill="#1D1D1B"></path>
                        <polygon id="Fill-24" fill="#1D1D1B" points="41.0620461 12.3627451 37.4622961 12.3627451 37.4622961 5.43490196 34.2156316 9.44666667 33.9314408 9.44666667 30.6753816 5.43490196 30.6753816 12.3627451 27.1789737 12.3627451 27.1789737 0.404313725 30.4428618 0.404313725 34.1122895 4.89137255 37.7981579 0.404313725 41.0620461 0.404313725"></polygon>
                        <polygon id="Fill-26" fill="#1D1D1B" points="55.505123 12.3627451 51.1130836 12.3627451 46.5480243 6.76352941 46.5480243 12.3627451 42.9482743 12.3627451 42.9482743 0.404313725 46.5480243 0.404313725 46.5480243 5.75411765 50.871952 0.404313725 54.7817283 0.404313725 50.3380178 6.00431373"></polygon>
                        <path d="M64.9584204,6.37498039 C64.9584204,5.92635294 64.8926572,5.51615686 64.760348,5.14517647 C64.6280388,4.77419608 64.4284007,4.45262745 64.1614336,4.17890196 C63.8944664,3.90596078 63.5687822,3.69341176 63.1843809,3.54047059 C62.7999796,3.38831373 62.3545125,3.31223529 61.8495454,3.31223529 C60.8850191,3.31223529 60.127177,3.59380392 59.5760191,4.15772549 C59.0248612,4.72164706 58.7492822,5.46047059 58.7492822,6.37498039 C58.7492822,7.2894902 59.0256441,8.02988235 59.5799336,8.59694118 C60.134223,9.16321569 60.8904993,9.44635294 61.8495454,9.44635294 C62.5095257,9.44635294 63.072427,9.31537255 63.5374664,9.05419608 C64.0025059,8.79223529 64.3555914,8.42988235 64.596723,7.96713725 C64.8378546,7.50360784 64.9584204,6.97341176 64.9584204,6.37498039 M68.6270651,6.37498039 C68.6270651,7.49105882 68.3702757,8.51772549 67.8566967,9.45498039 C67.3423349,10.3930196 66.5774467,11.1373333 65.5612493,11.6894902 C64.545052,12.2416471 63.3080783,12.5177255 61.8495454,12.5177255 C60.3737888,12.5177255 59.1250717,12.2306667 58.1033941,11.6549804 C57.0809336,11.0800784 56.3215257,10.324 55.8251704,9.38596078 C55.3288151,8.44870588 55.0798546,7.44478431 55.0798546,6.37498039 C55.0798546,5.29968627 55.3272493,4.29419608 55.820473,3.35929412 C56.3144796,2.42517647 57.0738875,1.67145098 58.0986967,1.09890196 C59.1235059,0.527137255 60.3737888,0.240862745 61.8495454,0.240862745 C62.9518612,0.240862745 63.935177,0.404784314 64.7987099,0.732627451 C65.6630257,1.06047059 66.3738941,1.50439216 66.9305322,2.06517647 C67.4871704,2.62596078 67.9099336,3.27929412 68.196473,4.02360784 C68.4837954,4.76870588 68.6270651,5.55223529 68.6270651,6.37498039" id="Fill-28" fill="#1D1D1B"></path>
                        <polygon id="Fill-30" fill="#1D1D1B" points="81.666177 0.40454902 76.2837757 12.5182745 73.9069072 12.5182745 68.6270651 0.40454902 72.3732164 0.40454902 75.1039533 7.3065098 77.9114138 0.40454902"></polygon>
                        <path d="M86.9278559,5.50117647 C87.5079809,5.2227451 87.9276125,4.90745098 88.1859678,4.55372549 C88.444323,4.2 88.5742836,3.73803922 88.5742836,3.16941176 C88.5742836,2.86588235 88.5296586,2.59529412 88.4411914,2.3545098 C88.3535072,2.1145098 88.236073,1.91294118 88.0912375,1.74823529 C87.946402,1.58431373 87.7851257,1.46117647 87.6089743,1.37882353 C87.4320401,1.29647059 87.2558888,1.25568627 87.0789546,1.25568627 C86.7383954,1.25568627 86.4643822,1.30588235 86.2561322,1.40705882 C86.0478822,1.50823529 85.8842572,1.63764706 85.7644743,1.79529412 C85.6446914,1.95372549 85.5624875,2.1372549 85.5186454,2.34588235 C85.4740204,2.55372549 85.4520993,2.7654902 85.4520993,2.98039216 C85.4520993,3.22039216 85.5022046,3.45411765 85.6039809,3.68156863 C85.7041914,3.90823529 85.8278888,4.13333333 85.9727243,4.3545098 C86.1175599,4.57568627 86.2757046,4.78039216 86.4455928,4.97019608 C86.6154809,5.16 86.7767572,5.3372549 86.9278559,5.50117647 M89.1035204,10.3537255 C88.548448,9.76 88.0090336,9.18431373 87.4860599,8.62901961 C86.9623033,8.07215686 86.436198,7.49803922 85.9069612,6.90352941 C85.4646257,7.27058824 85.1522507,7.6745098 84.9698362,8.11686275 C84.7866388,8.55921569 84.6950401,9.00784314 84.6950401,9.4627451 C84.6950401,10.0690196 84.8437901,10.5584314 85.1397243,10.9317647 C85.4364414,11.3043137 85.9124414,11.4901961 86.5685072,11.4901961 C87.0100599,11.4901961 87.470402,11.3992157 87.9495336,11.2156863 C88.4286651,11.0329412 88.8193296,10.8023529 89.1223099,10.5239216 C89.1724151,10.4737255 89.1669349,10.4172549 89.1035204,10.3537255 M87.3443559,6.05019608 C87.8360138,6.56862745 88.3276717,7.08078431 88.8193296,7.58588235 C89.3117704,8.09176471 89.8159546,8.60392157 90.333448,9.12156863 C90.787527,8.54039216 91.1907178,8.03137255 91.5445862,7.59529412 C91.8968888,7.16 92.2288362,6.79294118 92.5380796,6.49647059 C92.8465401,6.19921569 93.1432572,5.97490196 93.427448,5.82352941 C93.7108559,5.67137255 94.0161849,5.59607843 94.3442178,5.59607843 C94.7223559,5.59607843 95.0159414,5.69019608 95.2241914,5.88 C95.4324414,6.06980392 95.5365664,6.2972549 95.5365664,6.56235294 C95.5365664,6.7772549 95.473152,6.97254902 95.3471059,7.14980392 C95.2210599,7.32705882 94.9807112,7.41490196 94.6284086,7.41490196 C94.3630072,7.41490196 94.1899875,7.36470588 94.1085664,7.26431373 C94.0255796,7.16313725 93.9848691,7.0745098 93.9848691,6.99843137 C93.9848691,6.94745098 93.9754743,6.87529412 93.9566849,6.78039216 C93.9371125,6.6854902 93.8267243,6.63843137 93.6255204,6.63843137 C93.486948,6.63843137 93.3483757,6.68235294 93.2090204,6.77098039 C93.070448,6.85960784 92.9036914,7.01490196 92.7079678,7.23529412 C92.5122441,7.45647059 92.2632836,7.75686275 91.9603033,8.13568627 C91.6581059,8.5145098 91.2791849,8.99529412 90.8258888,9.57647059 C91.0145664,9.75294118 91.2290796,9.95215686 91.4686454,10.1733333 C91.7082112,10.3945098 91.9571717,10.6031373 92.215527,10.7984314 C92.4738822,10.9952941 92.7330204,11.1592157 92.9913757,11.2917647 C93.2497309,11.4243137 93.4932112,11.4901961 93.7202507,11.4901961 C94.1618033,11.4901961 94.4890533,11.3858824 94.7043493,11.1772549 C94.9188625,10.9694118 95.0699612,10.6823529 95.1584283,10.3152941 C95.1701717,10.265098 95.2085336,10.2243137 95.271948,10.1929412 C95.3345796,10.1607843 95.3972112,10.1513725 95.4606257,10.1639216 C95.5232572,10.1764706 95.5804086,10.2015686 95.6312967,10.2392157 C95.681402,10.2776471 95.7001914,10.3341176 95.6876651,10.4101961 C95.6618296,10.7011765 95.5866717,10.9858824 95.4606257,11.2627451 C95.3345796,11.5411765 95.167823,11.7937255 94.959573,12.0211765 C94.751323,12.2486275 94.5054941,12.4313725 94.2213033,12.5709804 C93.9371125,12.7098039 93.6184743,12.7796078 93.2653888,12.7796078 C92.8872507,12.7796078 92.5341651,12.7294118 92.2061322,12.627451 C91.8780993,12.5262745 91.5696388,12.3937255 91.2791849,12.2298039 C90.9895138,12.0658824 90.7123691,11.8729412 90.4469678,11.6517647 C90.1815664,11.4305882 89.9302572,11.2 89.6899086,10.96 C89.6398033,10.9215686 89.5951783,10.9215686 89.5575993,10.96 C89.0158362,11.5788235 88.4505862,12.0376471 87.864198,12.3333333 C87.2778099,12.6305882 86.6311388,12.7796078 85.9249678,12.7796078 C85.484198,12.7796078 85.0637836,12.7192157 84.6668559,12.6 C84.2699283,12.4792157 83.9199743,12.3058824 83.6169941,12.0784314 C83.3140138,11.8501961 83.074448,11.5639216 82.8982967,11.2156863 C82.7213625,10.8682353 82.6328954,10.467451 82.6328954,10.0117647 C82.6328954,9.50666667 82.7057046,9.06745098 82.8505401,8.69490196 C82.9953757,8.32235294 83.1973625,7.99686275 83.4565007,7.71843137 C83.7148559,7.44078431 84.0139217,7.19764706 84.3552638,6.98901961 C84.6950401,6.78039216 85.0614349,6.58196078 85.4520993,6.39215686 C85.2508954,6.1772549 85.0543888,5.9654902 84.8657112,5.75686275 C84.6762507,5.54901961 84.5063625,5.32392157 84.3552638,5.08392157 C84.2033822,4.84392157 84.0835993,4.58196078 83.9951322,4.2972549 C83.907448,4.01254902 83.862823,3.68156863 83.862823,3.3027451 C83.862823,2.98666667 83.9254546,2.66745098 84.0522836,2.34588235 C84.1783296,2.0227451 84.3709217,1.72941176 84.629277,1.46431373 C84.8876322,1.19843137 85.2219283,0.983529412 85.6313822,0.818823529 C86.0416191,0.654901961 86.5309283,0.573333333 87.0977441,0.573333333 C87.4508296,0.573333333 87.8109612,0.620392157 88.176573,0.714509804 C88.5429678,0.809411765 88.8702178,0.955294118 89.1606717,1.15137255 C89.4503428,1.34666667 89.686777,1.6054902 89.8699743,1.92862745 C90.0523888,2.25098039 90.1447704,2.63921569 90.1447704,3.09411765 C90.1447704,3.47294118 90.0523888,3.81411765 89.8699743,4.11686275 C89.686777,4.42039216 89.4566059,4.69254902 89.1794612,4.93254902 C88.9015336,5.17254902 88.5993362,5.38509804 88.2713033,5.56705882 C87.9432704,5.75058824 87.634027,5.91137255 87.3443559,6.05019608" id="Fill-32" fill="#1D1D1B"></path>
                        <g id="Group-36">
                            <mask id="mask-6" fill="white">
                                <use xlink:href="#path-5"></use>
                            </mask>
                            <g id="Clip-35"></g>
                            <path d="M2.52765395,37.6251765 L2.75625921,37.6910588 C2.57384474,38.3632157 2.17143684,38.698902 1.55138421,38.698902 C1.09495658,38.698902 0.723081579,38.5475294 0.433410526,38.2455686 C0.145305263,37.9443922 -0.000313157895,37.5436078 -0.000313157895,37.0424314 C-0.000313157895,36.4628235 0.157831579,36.0134118 0.476469737,35.6941961 C0.793542105,35.3749804 1.16698289,35.2149804 1.59600921,35.2149804 C1.91934474,35.2149804 2.18474605,35.3036078 2.39377895,35.4816471 C2.60516053,35.6596863 2.71006842,35.8573333 2.71006842,36.0745882 C2.71006842,36.2055686 2.67092368,36.3138039 2.59263421,36.3985098 C2.51512763,36.484 2.42118026,36.5271373 2.31392368,36.5271373 C2.20901579,36.5271373 2.11976579,36.4902745 2.04852237,36.418902 C1.97493026,36.3459608 1.93891711,36.258902 1.93891711,36.1561569 C1.93891711,36.0534118 1.97962763,35.9553725 2.05791711,35.8628235 C2.09549605,35.8181176 2.11428553,35.7828235 2.11428553,35.7577255 C2.11428553,35.6902745 2.06966053,35.6243922 1.97806184,35.5600784 C1.88724605,35.496549 1.76276579,35.4636078 1.60775263,35.4636078 C1.32199605,35.4636078 1.1067,35.5679216 0.958732895,35.7757647 C0.748917105,36.0769412 0.644792105,36.4738039 0.644792105,36.9671373 C0.644792105,37.4369412 0.737956579,37.7922353 0.924285526,38.0345882 C1.11061447,38.2761569 1.34939737,38.3969412 1.63750263,38.3969412 C2.03834474,38.3969412 2.33427895,38.138902 2.52765395,37.6251765" id="Fill-34" fill="#1D1D1B" mask="url(#mask-6)"></path>
                        </g>
                        <path d="M3.15068158,35.3129412 L4.33050395,35.2533333 L4.33050395,36.5835294 C4.45655,36.1458824 4.60764868,35.814902 4.78536579,35.5905882 C4.96386579,35.3662745 5.18307632,35.2533333 5.44456316,35.2533333 C5.62071447,35.2533333 5.76320132,35.3082353 5.86889211,35.4164706 C5.97536579,35.5254902 6.02860263,35.6713725 6.02860263,35.8533333 C6.02860263,36.0007843 5.99258947,36.1152941 5.92212895,36.1976471 C5.85088553,36.2792157 5.76163553,36.32 5.65359605,36.32 C5.54947105,36.32 5.46413553,36.2847059 5.39993816,36.214902 C5.33495789,36.145098 5.30364211,36.0501961 5.30364211,35.9301961 C5.30364211,35.8533333 5.32243158,35.7811765 5.36001053,35.7137255 C5.39524079,35.652549 5.41246447,35.6164706 5.41246447,35.6039216 C5.41246447,35.5694118 5.38976053,35.5513725 5.34513553,35.5513725 C5.25040526,35.5513725 5.14158289,35.6078431 5.02101711,35.72 C4.85191184,35.8768627 4.72273421,36.092549 4.63191842,36.3654902 C4.49099737,36.7913725 4.42131974,37.1309804 4.42131974,37.3866667 L4.42131974,38.0917647 C4.42131974,38.1709804 4.44950395,38.2321569 4.50587237,38.2737255 C4.56145789,38.3160784 4.65775395,38.3372549 4.79241184,38.3372549 L5.20891184,38.3372549 L5.20891184,38.6 L3.17103684,38.6 L3.17103684,38.3372549 L3.49672105,38.3372549 C3.60710921,38.3372549 3.69009605,38.3152941 3.74646447,38.2721569 C3.80205,38.2290196 3.82945132,38.1764706 3.82945132,38.1160784 L3.82945132,36.0219608 C3.82945132,35.8627451 3.79656974,35.7466667 3.727675,35.6721569 C3.66034605,35.5992157 3.56405,35.5623529 3.43800395,35.5623529 L3.15068158,35.5623529 L3.15068158,35.3129412 Z" id="Fill-37" fill="#1D1D1B"></path>
                        <path d="M7.11510395,36.7307451 L8.53605789,36.7307451 C8.62061053,36.7307451 8.68559079,36.7017255 8.73256447,36.6444706 C8.77875526,36.5872157 8.803025,36.4899608 8.803025,36.3519216 C8.803025,36.0946667 8.72238684,35.8758431 8.56345921,35.695451 C8.40296579,35.5158431 8.21428816,35.4256471 7.99820921,35.4256471 C7.75394605,35.4256471 7.54882763,35.5346667 7.37893947,35.7511373 C7.20983421,35.9691765 7.12215,36.295451 7.11510395,36.7307451 M9.46457105,36.9793725 L7.11510395,36.9793725 C7.12684737,37.4797647 7.22001184,37.8327059 7.39538026,38.0381961 C7.59580132,38.2703529 7.85180789,38.3856471 8.16183421,38.3856471 C8.61904474,38.3856471 8.98700526,38.1252549 9.26493289,37.6036863 L9.49197237,37.7017255 C9.15219605,38.3668235 8.65975526,38.6985882 8.01543289,38.6985882 C7.57622895,38.6985882 7.20670263,38.5393725 6.90685395,38.2209412 C6.60700526,37.9032941 6.45590658,37.4962353 6.45590658,37.000549 C6.45590658,36.4672157 6.60387368,36.0358431 6.89980789,35.708 C7.19574211,35.3793725 7.55900526,35.215451 7.99038026,35.215451 C8.30823553,35.215451 8.58224868,35.2970196 8.81320263,35.4601569 C9.04415658,35.6240784 9.21795921,35.8593725 9.33382763,36.1652549 C9.41603158,36.3809412 9.45909079,36.6523137 9.46457105,36.9793725" id="Fill-39" fill="#1D1D1B"></path>
                        <path d="M12.2896467,36.8530196 C11.6969954,36.9353725 11.2773638,37.0687059 11.0291862,37.2530196 C10.8459888,37.3934118 10.7520414,37.5918431 10.7520414,37.8498824 C10.7520414,38.0294902 10.8013638,38.1698824 10.8960941,38.2726275 C10.9923901,38.3738039 11.1168704,38.4247843 11.2703178,38.4247843 C11.5458967,38.4247843 11.7854625,38.3204706 11.9866664,38.1102745 C12.1894362,37.9016471 12.2896467,37.638902 12.2896467,37.3236078 L12.2896467,36.8530196 Z M13.4397191,38.2381176 L13.5641993,38.4357647 C13.3950941,38.6106667 13.2056336,38.6985098 12.9973836,38.6985098 C12.8392388,38.6985098 12.7045809,38.6545882 12.5965414,38.5683137 C12.4877191,38.4820392 12.3929888,38.3298824 12.3107849,38.1126275 C12.0884428,38.3463529 11.8950678,38.5024314 11.7267454,38.5808627 C11.5592059,38.6592941 11.3564362,38.6985098 11.1215678,38.6985098 C10.7841401,38.6985098 10.5281336,38.6263529 10.353548,38.4804706 C10.1781796,38.3353725 10.0904954,38.1502745 10.0904954,37.9228235 C10.0904954,37.5816471 10.2916993,37.2977255 10.6917586,37.0726275 C11.0926007,36.8467451 11.6249691,36.6961569 12.2896467,36.6216471 L12.2896467,36.1236078 C12.2896467,35.9455686 12.2191862,35.7941961 12.0774822,35.6671373 C11.9334296,35.5416471 11.7525809,35.4781176 11.5333704,35.4781176 C11.3306007,35.4781176 11.1560151,35.5196863 11.0096138,35.6043922 C10.9031401,35.6671373 10.8514691,35.729098 10.8514691,35.7902745 C10.8514691,35.8255686 10.8788704,35.8804706 10.9344559,35.9549804 C11.0017849,36.0483137 11.0362322,36.1322353 11.0362322,36.2043922 C11.0362322,36.3094902 11.0017849,36.3957647 10.9344559,36.4616471 C10.867127,36.529098 10.777877,36.5620392 10.6690546,36.5620392 C10.5531862,36.5620392 10.4553243,36.5220392 10.376252,36.4428235 C10.2987454,36.3636078 10.2588178,36.2616471 10.2588178,36.1377255 C10.2588178,35.9063529 10.3895612,35.6945882 10.6486993,35.5024314 C10.9101862,35.3110588 11.2515283,35.2153725 11.6735086,35.2153725 C12.064173,35.2153725 12.361673,35.2992941 12.5667914,35.4679216 C12.7719099,35.638902 12.875252,35.8451765 12.875252,36.089098 L12.875252,37.8843922 C12.875252,38.0436078 12.9010875,38.1604706 12.9511928,38.2357647 C13.0028638,38.3126275 13.0701928,38.3510588 13.1508309,38.3510588 C13.2424296,38.3510588 13.3387257,38.3141961 13.4397191,38.2381176 L13.4397191,38.2381176 Z" id="Fill-41" fill="#1D1D1B"></path>
                        <path d="M14.8259125,33.9734902 L15.059998,33.9734902 L15.059998,35.313098 L16.1223862,35.313098 L16.1223862,35.635451 L15.059998,35.635451 L15.059998,37.7444706 C15.059998,37.9264314 15.104623,38.0668235 15.1907414,38.1640784 C15.2768599,38.260549 15.3856822,38.3091765 15.5195572,38.3091765 C15.6784849,38.3091765 15.8131428,38.235451 15.9250967,38.088 C16.0370507,37.940549 16.1035967,37.6981961 16.1223862,37.3585882 L16.3556888,37.3585882 C16.3415967,37.795451 16.242952,38.1201569 16.0589717,38.3319216 C15.8734257,38.5436863 15.6354257,38.6487843 15.3410572,38.6487843 C15.0701757,38.6487843 14.8572283,38.5750588 14.7053467,38.4260392 C14.5518993,38.2778039 14.4759586,38.0832941 14.4759586,37.8425098 L14.4759586,35.635451 L13.9044454,35.635451 L13.9044454,35.3907451 C14.1659322,35.3460392 14.3640046,35.2378039 14.4986625,35.0644706 C14.7006493,34.8048627 14.8102546,34.4409412 14.8259125,33.9734902" id="Fill-43" fill="#1D1D1B"></path>
                        <path d="M17.5990822,33.3522353 C17.7039901,33.3522353 17.7955888,33.391451 17.876227,33.471451 C17.9552993,33.551451 17.9936612,33.6447843 17.9936612,33.7522353 C17.9936612,33.8573333 17.9568651,33.9483137 17.8793586,34.0259608 C17.801852,34.1028235 17.7094704,34.1420392 17.6022138,34.1420392 C17.4941743,34.1420392 17.4025757,34.1020392 17.3235033,34.0236078 C17.2459967,33.9451765 17.206852,33.8541961 17.206852,33.7483137 C17.206852,33.6432157 17.2459967,33.551451 17.3266349,33.471451 C17.4049243,33.391451 17.4957401,33.3522353 17.5990822,33.3522353 L17.5990822,33.3522353 Z M16.6893586,35.3130196 L17.9936612,35.2745882 L17.9936612,38.1020392 C17.9936612,38.1796863 18.0124507,38.2338039 18.0500296,38.2667451 C18.1040493,38.3138039 18.1721612,38.3373333 18.2535822,38.3373333 L18.6254572,38.3373333 L18.6254572,38.6000784 L16.7582533,38.6000784 L16.7582533,38.3373333 L17.1050757,38.3373333 C17.206852,38.3373333 17.2835757,38.311451 17.3305493,38.2612549 C17.3783059,38.2110588 17.4025757,38.138902 17.4025757,38.0424314 L17.4025757,35.9726275 C17.4025757,35.8424314 17.3649967,35.7428235 17.2906217,35.6761569 C17.2154638,35.6094902 17.1050757,35.5757647 16.9571086,35.5757647 L16.6893586,35.5757647 L16.6893586,35.3130196 Z" id="Fill-45" fill="#1D1D1B"></path>
                        <path d="M18.8651013,35.3129412 L20.4802132,35.3129412 L20.4802132,35.5513725 C20.2649171,35.5568627 20.1279105,35.5764706 20.0676276,35.6101961 C20.0089105,35.6439216 19.9791605,35.6917647 19.9791605,35.7552941 C19.9791605,35.8070588 19.9901211,35.8580392 20.0151737,35.9098039 L20.8849697,37.8494118 L21.6756934,35.9686275 C21.6874368,35.9356863 21.6929171,35.9035294 21.6929171,35.8698039 C21.6929171,35.6996078 21.5261605,35.5937255 21.1902987,35.5513725 L21.1902987,35.3129412 L22.5494039,35.3129412 L22.5494039,35.5513725 C22.4116145,35.5662745 22.3012263,35.6031373 22.2198053,35.6635294 C22.1391671,35.7247059 22.0757526,35.8070588 22.0319105,35.9098039 L20.8286013,38.6988235 L20.6391408,38.6988235 L19.3489303,35.8321569 C19.3027395,35.7294118 19.2455882,35.6572549 19.179825,35.6164706 C19.1117132,35.5764706 19.0083711,35.5537255 18.8651013,35.5513725 L18.8651013,35.3129412 Z" id="Fill-47" fill="#1D1D1B"></path>
                        <path d="M23.5903408,36.7307451 L25.0112947,36.7307451 C25.0958474,36.7307451 25.1608276,36.7017255 25.2078013,36.6444706 C25.2539921,36.5872157 25.2782618,36.4899608 25.2782618,36.3519216 C25.2782618,36.0946667 25.1976237,35.8758431 25.0386961,35.695451 C24.8782026,35.5158431 24.689525,35.4256471 24.4734461,35.4256471 C24.2291829,35.4256471 24.0240645,35.5346667 23.8541763,35.7511373 C23.6850711,35.9691765 23.5973868,36.295451 23.5903408,36.7307451 M25.9398079,36.9793725 L23.5903408,36.9793725 C23.6020842,37.4797647 23.6952487,37.8327059 23.8706171,38.0381961 C24.0710382,38.2703529 24.3270447,38.3856471 24.6370711,38.3856471 C25.0942816,38.3856471 25.4622421,38.1252549 25.7401697,37.6036863 L25.9672092,37.7017255 C25.6274329,38.3668235 25.1349921,38.6985882 24.4906697,38.6985882 C24.0514658,38.6985882 23.6819395,38.5393725 23.3820908,38.2209412 C23.0822421,37.9032941 22.9311434,37.4962353 22.9311434,37.000549 C22.9311434,36.4672157 23.0791105,36.0358431 23.3750447,35.708 C23.6709789,35.3793725 24.0342421,35.215451 24.4656171,35.215451 C24.7834724,35.215451 25.0574855,35.2970196 25.2884395,35.4601569 C25.5193934,35.6240784 25.6931961,35.8593725 25.8090645,36.1652549 C25.8912684,36.3809412 25.9343276,36.6523137 25.9398079,36.9793725" id="Fill-49" fill="#1D1D1B"></path>
                        <path d="M30.7571158,36.8530196 C30.1644645,36.9353725 29.7448329,37.0687059 29.4966553,37.2530196 C29.3134579,37.3934118 29.2195105,37.5918431 29.2195105,37.8498824 C29.2195105,38.0294902 29.2688329,38.1698824 29.3635632,38.2726275 C29.4598592,38.3738039 29.5843395,38.4247843 29.7377868,38.4247843 C30.0133658,38.4247843 30.2529316,38.3204706 30.4541355,38.1102745 C30.6569053,37.9016471 30.7571158,37.638902 30.7571158,37.3236078 L30.7571158,36.8530196 Z M31.9071882,38.2381176 L32.0316684,38.4357647 C31.8625632,38.6106667 31.6731026,38.6985098 31.4648526,38.6985098 C31.3067079,38.6985098 31.17205,38.6545882 31.0640105,38.5683137 C30.9551882,38.4820392 30.8604579,38.3298824 30.7790368,38.1126275 C30.5559118,38.3463529 30.3625368,38.5024314 30.1942145,38.5808627 C30.026675,38.6592941 29.8239053,38.6985098 29.5890368,38.6985098 C29.2516092,38.6985098 28.9956026,38.6263529 28.8210171,38.4804706 C28.6456487,38.3353725 28.5579645,38.1502745 28.5579645,37.9228235 C28.5579645,37.5816471 28.7591684,37.2977255 29.1592276,37.0726275 C29.5600697,36.8467451 30.0924382,36.6961569 30.7571158,36.6216471 L30.7571158,36.1236078 C30.7571158,35.9455686 30.6866553,35.7941961 30.5449513,35.6671373 C30.4008987,35.5416471 30.22005,35.4781176 30.0008395,35.4781176 C29.7980697,35.4781176 29.6234842,35.5196863 29.4770829,35.6043922 C29.3706092,35.6671373 29.3189382,35.729098 29.3189382,35.7902745 C29.3189382,35.8255686 29.3463395,35.8804706 29.401925,35.9549804 C29.4692539,36.0483137 29.5037013,36.1322353 29.5037013,36.2043922 C29.5037013,36.3094902 29.4692539,36.3957647 29.401925,36.4616471 C29.3345961,36.529098 29.2453461,36.5620392 29.1365237,36.5620392 C29.0206553,36.5620392 28.9227934,36.5220392 28.8437211,36.4428235 C28.7662145,36.3636078 28.7262868,36.2616471 28.7262868,36.1377255 C28.7262868,35.9063529 28.8570303,35.6945882 29.1161684,35.5024314 C29.3776553,35.3110588 29.7189974,35.2153725 30.1409776,35.2153725 C30.5316421,35.2153725 30.8291421,35.2992941 31.0342605,35.4679216 C31.2393789,35.638902 31.3427211,35.8451765 31.3427211,36.089098 L31.3427211,37.8843922 C31.3427211,38.0436078 31.3685566,38.1604706 31.4186618,38.2357647 C31.4703329,38.3126275 31.5376618,38.3510588 31.6183,38.3510588 C31.7098987,38.3510588 31.8061947,38.3141961 31.9071882,38.2381176 L31.9071882,38.2381176 Z" id="Fill-51" fill="#1D1D1B"></path>
                        <g id="Group-55">
                            <mask id="mask-8" fill="white">
                                <use xlink:href="#path-7"></use>
                            </mask>
                            <g id="Clip-54"></g>
                            <path d="M34.0197513,35.439451 C33.8130671,35.439451 33.6408303,35.5163137 33.5061724,35.6692549 C33.3691658,35.8229804 33.3018368,36.037098 33.3018368,36.3131765 C33.3018368,36.6080784 33.3691658,36.8363137 33.5061724,36.9986667 C33.6408303,37.1618039 33.8130671,37.2425882 34.0236658,37.2425882 C34.2334816,37.2425882 34.4057184,37.1633725 34.5411592,37.0065098 C34.6742513,36.8480784 34.7415803,36.6214118 34.7415803,36.3265098 C34.7415803,36.0535686 34.6726855,35.837098 34.5364618,35.6778824 C34.4002382,35.519451 34.2280013,35.439451 34.0197513,35.439451 M34.2264355,38.6033725 C33.7974092,38.6033725 33.4912974,38.6637647 33.3081,38.7829804 C33.1241197,38.9021961 33.0325211,39.0457255 33.0325211,39.2143529 C33.0325211,39.3727843 33.1014158,39.4982745 33.2392053,39.5892549 C33.4208368,39.7108235 33.6807579,39.772 34.0166197,39.772 C34.4190276,39.772 34.7204421,39.7053333 34.9239947,39.5712157 C35.1267645,39.4386667 35.2285408,39.2896471 35.2285408,39.1265098 C35.2285408,39.0300392 35.1964421,38.9406275 35.1338105,38.8582745 C35.0703961,38.7751373 34.9701855,38.7116078 34.8323961,38.6684706 C34.6946066,38.6253333 34.4934026,38.6033725 34.2264355,38.6033725 M34.9412184,35.4990588 C35.1753039,35.2621961 35.3890342,35.144549 35.5855408,35.144549 C35.7021921,35.144549 35.7992711,35.1821961 35.8759947,35.2567059 C35.9535013,35.332 35.9918632,35.4229804 35.9918632,35.5304314 C35.9918632,35.6167059 35.9660276,35.6888627 35.9127908,35.7461176 C35.8595539,35.8041569 35.7992711,35.8323922 35.7295934,35.8323922 C35.5957184,35.8323922 35.5064684,35.7508235 35.4594947,35.586902 C35.4407053,35.5163137 35.4093895,35.4818039 35.3647645,35.4818039 C35.2856921,35.4818039 35.1995737,35.5343529 35.1064092,35.639451 C35.2066197,35.7774902 35.2755145,35.8974902 35.3130934,35.9986667 C35.3506724,36.1006275 35.3686789,36.2104314 35.3686789,36.3265098 C35.3686789,36.5304314 35.3185737,36.7100392 35.2214947,36.8653333 C35.1236329,37.0214118 34.9600079,37.1586667 34.7329684,37.2778824 C34.5051461,37.397098 34.2882842,37.4559216 34.0800342,37.4559216 L33.6979816,37.4559216 C33.4271,37.4559216 33.2478171,37.4841569 33.1585671,37.5414118 C33.0693171,37.599451 33.0262579,37.6849412 33.0262579,37.797098 C33.0262579,37.8880784 33.0622711,37.9578824 33.1342974,38.0072941 C33.2071066,38.0567059 33.3433303,38.0810196 33.5445342,38.0810196 L34.40885,38.0637647 C34.8449224,38.0637647 35.1596461,38.1367059 35.3530211,38.2825882 C35.5456132,38.4292549 35.6419092,38.6292549 35.6419092,38.8841569 C35.6419092,39.1649412 35.5315211,39.4010196 35.3130934,39.5931765 C35.0069816,39.8637647 34.5505539,40.0002353 33.9438105,40.0002353 C33.4411921,40.0002353 33.0693171,39.906902 32.8266197,39.7225882 C32.6348105,39.5782745 32.5400803,39.4151373 32.5400803,39.2347451 C32.5400803,39.0967059 32.6003632,38.9704314 32.7232776,38.8559216 C32.8454092,38.7414118 33.0505276,38.6559216 33.3409816,38.6002353 C33.1100276,38.5437647 32.936225,38.4614118 32.8195737,38.3531765 C32.7021395,38.2441569 32.6449882,38.1092549 32.6449882,37.9476863 C32.6449882,37.7978824 32.6919618,37.6676863 32.7851263,37.557098 C32.8798566,37.4457255 33.0450474,37.3500392 33.2775671,37.2708235 C33.0794947,37.1610196 32.9299618,37.0276863 32.8297513,36.8723922 C32.7295408,36.717098 32.6794355,36.5390588 32.6794355,36.3374902 C32.6794355,36.0198431 32.8039158,35.7531765 33.0536592,35.5382745 C33.3034026,35.3225882 33.6275211,35.2151373 34.0267974,35.2151373 C34.1904224,35.2151373 34.3485671,35.2378824 34.5004487,35.2849412 C34.6515474,35.332 34.7995145,35.4033725 34.9412184,35.4990588" id="Fill-53" fill="#1D1D1B" mask="url(#mask-8)"></path>
                        </g>
                        <path d="M37.0082171,36.7307451 L38.4291711,36.7307451 C38.5137237,36.7307451 38.5787039,36.7017255 38.6256776,36.6444706 C38.6718684,36.5872157 38.6961382,36.4899608 38.6961382,36.3519216 C38.6961382,36.0946667 38.6155,35.8758431 38.4565724,35.695451 C38.2960789,35.5158431 38.1074013,35.4256471 37.8913224,35.4256471 C37.6470592,35.4256471 37.4419408,35.5346667 37.2720526,35.7511373 C37.1029474,35.9691765 37.0152632,36.295451 37.0082171,36.7307451 M39.3576842,36.9793725 L37.0082171,36.9793725 C37.0199605,37.4797647 37.113125,37.8327059 37.2884934,38.0381961 C37.4889145,38.2703529 37.7449211,38.3856471 38.0549474,38.3856471 C38.5121579,38.3856471 38.8801184,38.1252549 39.1580461,37.6036863 L39.3850855,37.7017255 C39.0453092,38.3668235 38.5528684,38.6985882 37.9085461,38.6985882 C37.4693421,38.6985882 37.0998158,38.5393725 36.7999671,38.2209412 C36.5001184,37.9032941 36.3490197,37.4962353 36.3490197,37.000549 C36.3490197,36.4672157 36.4969868,36.0358431 36.7929211,35.708 C37.0888553,35.3793725 37.4521184,35.215451 37.8834934,35.215451 C38.2013487,35.215451 38.4753618,35.2970196 38.7063158,35.4601569 C38.9372697,35.6240784 39.1110724,35.8593725 39.2269408,36.1652549 C39.3091447,36.3809412 39.3522039,36.6523137 39.3576842,36.9793725" id="Fill-56" fill="#1D1D1B"></path>
                        <path d="M39.8645303,35.3129412 L40.9543197,35.2470588 C40.9981618,35.452549 41.0318263,35.6933333 41.0513987,35.9694118 C41.1993658,35.7309804 41.3731684,35.5513725 41.5728066,35.4321569 C41.7724447,35.3129412 41.9971355,35.2533333 42.2500105,35.2533333 C42.4668724,35.2533333 42.6492868,35.2964706 42.7956882,35.3819608 C42.9436553,35.4666667 43.0610895,35.6023529 43.1503395,35.7866667 C43.2380237,35.9717647 43.2818658,36.1788235 43.2818658,36.4078431 L43.2818658,38.0070588 C43.2818658,38.1262745 43.3092671,38.2109804 43.3625039,38.2611765 C43.4173066,38.3121569 43.5073395,38.3372549 43.6326026,38.3372549 L43.8635566,38.3372549 L43.8635566,38.6 L42.1341421,38.6 L42.1341421,38.3372549 L42.29855,38.3372549 C42.4527803,38.3372549 42.5600368,38.3121569 42.6203197,38.2635294 C42.6821684,38.2141176 42.7119184,38.1403922 42.7119184,38.0423529 L42.7119184,36.6360784 C42.7119184,36.3294118 42.6649447,36.1027451 42.5717803,35.9552941 C42.4410368,35.745098 42.2429645,35.6392157 41.9759974,35.6392157 C41.7129447,35.6392157 41.4921684,35.7458824 41.3168,35.9584314 C41.1406487,36.1717647 41.0513987,36.4486275 41.0513987,36.7898039 L41.0513987,38.0070588 C41.0513987,38.1262745 41.0803658,38.2109804 41.1351684,38.2611765 C41.1891882,38.3121569 41.2800039,38.3372549 41.40605,38.3372549 L41.6330895,38.3372549 L41.6330895,38.6 L39.8958461,38.6 L39.8958461,38.3372549 L40.1244513,38.3372549 C40.2395368,38.3372549 40.3256553,38.3137255 40.3859382,38.2666667 C40.4446553,38.2196078 40.4744053,38.1615686 40.4744053,38.0917647 L40.4744053,35.9694118 C40.4744053,35.8290196 40.4360434,35.7231373 40.3608855,35.6501961 C40.2849447,35.5772549 40.1761224,35.5419608 40.0336355,35.5419608 L39.8645303,35.5419608 L39.8645303,35.3129412 Z" id="Fill-58" fill="#1D1D1B"></path>
                        <path d="M46.7529079,37.6251765 L46.9815132,37.6910588 C46.7990987,38.3632157 46.3966908,38.698902 45.7766382,38.698902 C45.3202105,38.698902 44.9483355,38.5475294 44.6586645,38.2455686 C44.3705592,37.9443922 44.2249408,37.5436078 44.2249408,37.0424314 C44.2249408,36.4628235 44.3830855,36.0134118 44.7017237,35.6941961 C45.0187961,35.3749804 45.3922368,35.2149804 45.8212632,35.2149804 C46.1445987,35.2149804 46.41,35.3036078 46.6190329,35.4816471 C46.8304145,35.6596863 46.9353224,35.8573333 46.9353224,36.0745882 C46.9353224,36.2055686 46.8961776,36.3138039 46.8178882,36.3985098 C46.7403816,36.484 46.6464342,36.5271373 46.5391776,36.5271373 C46.4342697,36.5271373 46.3450197,36.4902745 46.2737763,36.418902 C46.2001842,36.3459608 46.1641711,36.258902 46.1641711,36.1561569 C46.1641711,36.0534118 46.2048816,35.9553725 46.2831711,35.8628235 C46.32075,35.8181176 46.3395395,35.7828235 46.3395395,35.7577255 C46.3395395,35.6902745 46.2949145,35.6243922 46.2033158,35.5600784 C46.1125,35.496549 45.9880197,35.4636078 45.8330066,35.4636078 C45.54725,35.4636078 45.3319539,35.5679216 45.1839868,35.7757647 C44.9741711,36.0769412 44.8700461,36.4738039 44.8700461,36.9671373 C44.8700461,37.4369412 44.9632105,37.7922353 45.1495395,38.0345882 C45.3358684,38.2761569 45.5746513,38.3969412 45.8627566,38.3969412 C46.2635987,38.3969412 46.5595329,38.138902 46.7529079,37.6251765" id="Fill-60" fill="#1D1D1B"></path>
                        <path d="M47.3543276,35.3129412 L48.9271632,35.3129412 L48.9271632,35.5513725 L48.7799789,35.5513725 C48.6421895,35.5513725 48.5482421,35.5694118 48.4981368,35.6062745 C48.4480316,35.6423529 48.4221961,35.694902 48.4221961,35.7623529 C48.4221961,35.7921569 48.4292421,35.8235294 48.4441171,35.8533333 L49.3577553,37.8290196 L50.0373079,36.1898039 C50.0858474,36.0737255 50.1101171,35.9584314 50.1101171,35.8462745 C50.1101171,35.76 50.0756697,35.692549 50.0083408,35.6447059 C49.9410118,35.5968627 49.8055711,35.5662745 49.6020184,35.5513725 L49.6020184,35.3129412 L50.9689526,35.3129412 L50.9689526,35.5513725 C50.7043342,35.5772549 50.5266171,35.6956863 50.4358013,35.9058824 L49.2215316,38.7356863 C49.0164132,39.2156863 48.8081632,39.5466667 48.6014789,39.7262745 C48.3908803,39.9090196 48.1654066,40 47.9258408,40 C47.7504724,40 47.6095513,39.9521569 47.5038605,39.8564706 C47.3973868,39.76 47.34415,39.6415686 47.34415,39.5019608 C47.34415,39.3968627 47.3770316,39.3098039 47.4420118,39.2423529 C47.507775,39.1741176 47.5899789,39.1403922 47.6870579,39.1403922 C47.7763079,39.1403922 47.8506829,39.1694118 47.9109658,39.227451 C47.9712487,39.2870588 48.0033474,39.3568627 48.0033474,39.4384314 C48.0033474,39.4643137 47.9970842,39.4996078 47.9884724,39.5435294 C47.9790776,39.5788235 47.9743803,39.6047059 47.9743803,39.6211765 C47.9743803,39.6768627 48.0103934,39.705098 48.0832026,39.705098 C48.1599263,39.705098 48.2468276,39.6768627 48.3431237,39.6211765 C48.4409855,39.5647059 48.5310184,39.4745098 48.6147882,39.3505882 C48.6993408,39.227451 48.8473079,38.9521569 49.0563408,38.5270588 L47.8123211,35.8533333 C47.7676961,35.76 47.7128934,35.6901961 47.6455645,35.6447059 C47.5798013,35.5992157 47.4819395,35.5678431 47.3543276,35.5513725 L47.3543276,35.3129412 Z" id="Fill-62" fill="#1D1D1B"></path>
                    </g>
                </g>
            </g>
        </g>
    </g>
</svg>