<?xml version="1.0" encoding="UTF-8" standalone="no"?>
<svg width="54px" height="55px" viewBox="0 0 54 55" version="1.1" xmlns="http://www.w3.org/2000/svg" xmlns:xlink="http://www.w3.org/1999/xlink">
    <!-- Generator: sketchtool 3.8.2 (29753) - http://www.bohemiancoding.com/sketch -->
    <title>2FBD19F7-3933-420C-85E5-1BA8C6C2D7E2</title>
    <desc>Created with sketchtool.</desc>
    <defs>
        <filter x="-50%" y="-50%" width="200%" height="200%" filterUnits="objectBoundingBox" id="filter-1">
            <feOffset dx="0" dy="8" in="SourceAlpha" result="shadowOffsetOuter1"></feOffset>
            <feGaussianBlur stdDeviation="4" in="shadowOffsetOuter1" result="shadowBlurOuter1"></feGaussianBlur>
            <feColorMatrix values="0 0 0 0 0.22180591   0 0 0 0 0.190534375   0 0 0 0 0.162792445  0 0 0 1 0" type="matrix" in="shadowBlurOuter1" result="shadowMatrixOuter1"></feColorMatrix>
            <feMerge>
                <feMergeNode in="shadowMatrixOuter1"></feMergeNode>
                <feMergeNode in="SourceGraphic"></feMergeNode>
            </feMerge>
        </filter>
        <polyline id="path-2" points="0 0.0460909091 37.9529395 0.0460909091 37.9529395 39 0 39"></polyline>
        <polygon id="path-4" points="0 0.0460909091 37.9529395 0.0460909091 37.9529395 39 0 39"></polygon>
    </defs>
    <g id="Page-1" stroke="none" stroke-width="1" fill="none" fill-rule="evenodd">
        <g id="Main-page-—-first-step" transform="translate(-693.000000, -2882.000000)">
            <g id="6-block-—-present" transform="translate(0.000000, 2816.000000)">
                <g id="Present-icon" filter="url(#filter-1)" transform="translate(701.000000, 66.000000)">
                    <g id="Group-3">
                        <mask id="mask-3" fill="white">
                            <use xlink:href="#path-2"></use>
                        </mask>
                        <g id="Clip-2"></g>
                        <path d="M23.0471217,10.5597818 C24.1119331,10.2145091 25.1661964,9.8961 26.2030149,9.52832727 C26.9018904,9.28055455 27.5952214,9.00046364 28.2543388,8.66214545 C28.6431288,8.46264545 29.0350292,8.17887273 29.296837,7.83373636 C30.3396057,6.45905455 29.9278263,4.46814545 28.4594847,3.56637273 C26.9947943,2.66705455 25.1130505,3.16928182 24.401869,4.76500909 C23.7954918,6.12550909 23.3724883,7.56796364 22.8352142,8.96119091 C22.6214135,9.51564545 22.6303388,10.0050545 23.0471217,10.5597818 M15.0637409,10.6465091 C15.1498833,10.1033727 15.3321751,9.71978182 15.236837,9.42878182 C14.7157907,7.83905455 14.1808157,6.24864545 13.5304883,4.71019091 C13.3122249,4.19391818 12.811869,3.70314545 12.3170577,3.41950909 C10.9138975,2.6151 9.14304342,3.23023636 8.3998121,4.68046364 C7.64549181,6.15223636 8.16180498,7.92291818 9.68126406,8.58837273 C11.3863957,9.33523636 13.1587374,9.92637273 15.0637409,10.6465091 M17.9333495,7.59278182 L20.0290292,7.59278182 C20.5759046,6.22573636 21.1035772,4.83073636 21.6899402,3.46123636 C22.310111,2.01250909 23.3977765,1.03273636 24.8613851,0.481690909 C27.3509936,-0.455672727 30.1583957,0.395236364 31.7324883,2.55891818 C33.3069865,4.72300909 33.2930577,7.69437273 31.6101039,9.77282727 C31.0855416,10.4206909 30.3575915,10.9013727 29.720111,11.4607364 C29.8488512,11.4690545 30.0362819,11.4911455 30.2237125,11.4914182 C31.755748,11.4944182 33.2879189,11.4790091 34.8198192,11.4972818 C36.672353,11.5196455 37.9083673,12.7619182 37.9396057,14.6202818 C37.9544811,15.5059636 37.9646235,16.3934182 37.9267587,17.2778727 C37.8629295,18.7701 36.7672854,19.9276909 35.2981324,20.0921455 C34.985748,20.1271909 34.6686306,20.1295091 34.3536769,20.1296455 C30.2757765,20.1319636 26.1978762,20.1312818 22.1198406,20.1312818 L21.2485452,20.1312818 L21.2485452,11.6651455 L16.7238406,11.6651455 L16.7238406,20.1322364 L15.9021751,20.1322364 C11.7566591,20.1322364 7.61114306,20.1346909 3.46562705,20.1311455 C1.15763416,20.1292364 0.00816797153,18.9765545 0.00397580071,16.6728273 C0.00262348754,15.9911455 -0.00549039146,15.3094636 0.00640996441,14.6280545 C0.0392711744,12.7677818 1.26947046,11.5186909 3.11943488,11.4979636 C4.87500783,11.4781909 6.63112171,11.4937364 8.5764242,11.4937364 C8.27607544,11.2991455 8.12840285,11.1927818 7.97126406,11.1031909 C5.80783345,9.87019091 4.73233879,7.52800909 5.16237438,4.98032727 C5.57090819,2.56000909 7.52189039,0.565418182 9.88640996,0.1506 C12.6238975,-0.329536364 15.0395345,0.859009091 16.2436342,3.39537273 C16.8912569,4.75928182 17.3790363,6.20023636 17.9333495,7.59278182" id="Fill-1" fill="#FFFFFF" mask="url(#mask-3)"></path>
                    </g>
                    <g id="Group-6">
                        <mask id="mask-5" fill="white">
                            <use xlink:href="#path-4"></use>
                        </mask>
                        <g id="Clip-5"></g>
                        <path d="M21.2682078,38.9984455 L21.2682078,23.4036273 L36.9380014,23.4036273 C36.9480085,23.6114455 36.9695103,23.8489909 36.9695103,24.0865364 C36.971674,27.9478091 36.9737025,31.8092182 36.969916,35.6704909 C36.9678875,37.7475818 35.7509409,38.9931273 33.7090833,38.9965364 C29.7672256,39.0030818 25.825368,38.9984455 21.8833751,38.9984455 L21.2682078,38.9984455 Z" id="Fill-4" fill="#FFFFFF" mask="url(#mask-5)"></path>
                    </g>
                    <path d="M16.6621616,23.3977227 L16.6621616,38.9984045 L15.9609872,38.9984045 C12.0871509,38.9984045 8.21331459,39.0005864 4.33947829,38.9975864 C2.18632527,38.99595 0.979250534,37.7889955 0.977492527,35.6362227 C0.974382206,31.7981318 0.976545907,27.9600409 0.976545907,24.12195 L0.976545907,23.3977227 L16.6621616,23.3977227 Z" id="Fill-7" fill="#FFFFFF"></path>
                </g>
            </g>
        </g>
    </g>
</svg>